{
  "name": "aurelia-hello-world",
  "type": "project:application",
  "bundler": {
    "id": "webpack",
    "displayName": "Webpack"
  },
  "build": {
    "options": {
      "server": "dev",
      "extractCss": "prod",
      "coverage": false
    },
    "bundles": [
      {
        "name": "vendor-bundle.js",
        "dependencies": [
          {
            "name": "jquery",
            "path": "../node_modules/jquery/dist",
            "main": "jquery.min",
            "exports": "$"
          },
          {
            "name": "bootstrap",
            "path": "../node_modules/bootstrap/dist",
            "main": "js/bootstrap",
            "deps": [
              "jquery"
            ],
            "resources": [
              "css/bootstrap.css"
            ]
          }
        ]
      }
    ]
  },
  "platform": {
    "id": "web",
    "displayName": "Web",
    "port": 8080,
    "hmr": false,
    "open": false,
    "output": "dist"
  },
  "loader": {
    "id": "none",
    "displayName": "None"
  },
  "transpiler": {
    "id": "babel",
    "displayName": "Babel",
    "fileExtension": ".js",
    "options": {
      "plugins": [
        "transform-es2015-modules-amd"
      ]
    }
  },
  "markupProcessor": {
    "id": "maximum",
    "displayName": "Maximum Minification",
    "fileExtension": ".html"
  },
  "cssProcessor": {
    "id": "sass",
    "displayName": "Sass",
    "fileExtension": ".scss"
  },
  "editor": {
    "id": "webstorm",
    "displayName": "WebStorm"
  },
  "unitTestRunner": [
    {
      "id": "karma",
      "displayName": "Karma"
    }
  ],
  "integrationTestRunner": {
    "id": "protractor",
    "displayName": "Protractor"
  },
  "paths": {
    "root": "src",
    "resources": "resources",
    "elements": "resources/elements",
    "attributes": "resources/attributes",
    "valueConverters": "resources/value-converters",
    "bindingBehaviors": "resources/binding-behaviors"
  },
  "testFramework": {
    "id": "jasmine",
    "displayName": "Jasmine"
  }
}
